<svg width="414" height="724" viewBox="0 0 414 724" fill="none" xmlns="http://www.w3.org/2000/svg">
    <path d="M-67.8757 522.393C-150.108 521.599 -131.933 277.088 -112.567 154.932C-90.7642 149.964 -99.8547 296.156 -56.9511 302.91C-3.32167 311.351 -41.5575 -0.990775 28.4588 0.0023634C98.475 0.995502 76.1294 182.74 75.1363 208.561C74.1431 234.383 68.1843 296.454 116.848 297.447C165.512 298.44 133.731 233.39 200.272 227.431C266.812 221.472 247.399 424.055 247.399 456.347C247.399 476.212 252.862 509.977 291.144 505.013C338.02 498.936 324.414 245.308 324.414 233.39C324.414 221.472 330.373 186.712 375.064 188.202C419.755 189.692 423.231 256.232 423.231 277.585C423.231 298.937 430.183 565.098 417.769 549.208C405.355 533.318 415.737 451.381 410.274 434.498C407.825 426.927 392.941 406.693 368.112 405.699C343.284 404.706 330.373 422.656 330.373 442.942C330.373 456.347 369.602 715.559 281.709 723.504C193.816 731.449 239.004 495.082 235.528 476.212C232.052 457.343 213.183 447.411 191.83 446.418C170.478 445.425 162.036 459.329 157.07 469.26C152.104 479.192 163.029 516.434 101.951 515.441C40.873 514.448 68.1843 276.095 68.1843 256.232C68.1843 236.369 42.8593 220.976 23.4931 220.479C4.12688 219.983 -11.3131 233.274 -11.3131 250.767C-11.3131 267.651 34.9141 523.386 -67.8757 522.393Z" fill="url(#paint0_linear)"/>
    <circle cx="266.269" cy="75.4779" r="60.5814" fill="url(#paint1_linear)"/>
    <circle cx="30.8959" cy="622.697" r="60.5814" fill="url(#paint2_linear)"/>
    <defs>
        <linearGradient id="paint0_linear" x1="148.086" y1="0" x2="148.086" y2="723.7" gradientUnits="userSpaceOnUse">
            <stop stop-color="#FFEBDF"/>
            <stop offset="1" stop-color="#E2EAFF"/>
        </linearGradient>
        <linearGradient id="paint1_linear" x1="266.269" y1="14.8965" x2="266.269" y2="136.059" gradientUnits="userSpaceOnUse">
            <stop stop-color="#FFEBDF"/>
            <stop offset="1" stop-color="#E2EAFF"/>
        </linearGradient>
        <linearGradient id="paint2_linear" x1="30.8959" y1="562.115" x2="30.8959" y2="683.278" gradientUnits="userSpaceOnUse">
            <stop stop-color="#FFEBDF"/>
            <stop offset="1" stop-color="#E2EAFF"/>
        </linearGradient>
    </defs>
</svg>
